Lighting system/grouptest.vcd
$date
	08/04/24 19:21:09
$end
$version
	RIMS 2.9
$end
$timescale
	1 ms
$end
$scope module RIMS $end
$var wire 1 *TMR TIMER_ISR $end
$var wire 1 *A0 A0 $end
$var wire 1 *A1 A1 $end
$var wire 1 *A2 A2 $end
$var wire 1 *A3 A3 $end
$var wire 1 *A4 A4 $end
$var wire 1 *A5 A5 $end
$var wire 1 *A6 A6 $end
$var wire 1 *A7 A7 $end
$var wire 1 *B0 B0 $end
$var wire 1 *B1 B1 $end
$var wire 1 *B2 B2 $end
$var wire 1 *B3 B3 $end
$var wire 1 *B4 B4 $end
$var wire 1 *B5 B5 $end
$var wire 1 *B6 B6 $end
$var wire 1 *B7 B7 $end
$upscope $end
$enddefinitions $end

#0
$dumpvars
b0 *TMR
b0 *A0
b0 *A1
b0 *A2
b0 *A3
b0 *A4
b0 *A5
b0 *A6
b0 *A7
b0 *B0
b0 *B1
b0 *B2
b0 *B3
b0 *B4
b0 *B5
b0 *B6
b0 *B7
$end
#1004
b1 *TMR
#1008
b0 *TMR
#2004
b1 *TMR
#2008
b0 *TMR
#3004
b1 *TMR
#3008
b0 *TMR
#4004
b1 *TMR
#4008
b0 *TMR
#5004
b1 *TMR
#5008
b0 *TMR
#6004
b1 *TMR
#6008
b0 *TMR
#7004
b1 *TMR
#7008
b0 *TMR
#8004
b1 *TMR
#8008
b0 *TMR
#9004
b1 *TMR
#9008
b0 *TMR
#10004
b1 *TMR
#10008
b0 *TMR
#11004
b1 *TMR
#11008
b0 *TMR
#12004
b1 *TMR
#12008
b0 *TMR
#13004
b1 *TMR
#13008
b0 *TMR
#14004
b1 *TMR
#14008
b0 *TMR
#15004
b1 *TMR
#15008
b0 *TMR
#16004
b1 *TMR
#16008
b0 *TMR
#17004
b1 *TMR
#17008
b0 *TMR
#18004
b1 *TMR
#18008
b0 *TMR
#19004
b1 *TMR
#19008
b0 *TMR
#20004
b1 *TMR
#20008
b0 *TMR
#21004
b1 *TMR
#21008
b0 *TMR
#22004
b1 *TMR
#22008
b0 *TMR
#23004
b1 *TMR
#23008
b0 *TMR
#24004
b1 *TMR
#24008
b0 *TMR
#25004
b1 *TMR
#25008
b0 *TMR
#26004
b1 *TMR
#26008
b0 *TMR
#27004
b1 *TMR
#27008
b0 *TMR
#28004
b1 *TMR
#28008
b0 *TMR
#29004
b1 *TMR
#29008
b0 *TMR
#30004
b1 *TMR
#30008
b0 *TMR
#31004
b1 *TMR
#31008
b0 *TMR
#32004
b1 *TMR
#32008
b0 *TMR
#33004
b1 *TMR
#33008
b0 *TMR
#34004
b1 *TMR
#34008
b0 *TMR
#35004
b1 *TMR
#35008
b0 *TMR
#36004
b1 *TMR
#36008
b0 *TMR
#37004
b1 *TMR
#37008
b0 *TMR
#38004
b1 *TMR
#38008
b0 *TMR
#39004
b1 *TMR
#39008
b0 *TMR
#40004
b1 *TMR
#40008
b0 *TMR
#41004
b1 *TMR
#41008
b0 *TMR
#42004
b1 *TMR
#42008
b0 *TMR
#43004
b1 *TMR
#43008
b0 *TMR
#44004
b1 *TMR
#44008
b0 *TMR
#45004
b1 *TMR
#45008
b0 *TMR
#46004
b1 *TMR
#46008
b0 *TMR
#47004
b1 *TMR
#47008
b0 *TMR
#48004
b1 *TMR
#48008
b0 *TMR
#49004
b1 *TMR
#49008
b0 *TMR
#50004
b1 *TMR
#50008
b0 *TMR
#51004
b1 *TMR
#51008
b0 *TMR
#52004
b1 *TMR
#52008
b0 *TMR
#53004
b1 *TMR
#53008
b0 *TMR
#54004
b1 *TMR
#54008
b0 *TMR
#55004
b1 *TMR
#55008
b0 *TMR
#56004
b1 *TMR
#56008
b0 *TMR
#57004
b1 *TMR
#57008
b0 *TMR
#58004
b1 *TMR
#58008
b0 *TMR
#59004
b1 *TMR
#59008
b0 *TMR
#60004
b1 *TMR
#60008
b0 *TMR
#61004
b1 *TMR
#61008
b0 *TMR
#62004
b1 *TMR
#62008
b0 *TMR
#63004
b1 *TMR
#63008
b0 *TMR
#64004
b1 *TMR
#64008
b0 *TMR
#65004
b1 *TMR
#65008
b0 *TMR
#66004
b1 *TMR
#66008
b0 *TMR
#67004
b1 *TMR
#67008
b0 *TMR
#68004
b1 *TMR
#68008
b0 *TMR
#69004
b1 *TMR
#69008
b0 *TMR
#70004
b1 *TMR
#70008
b0 *TMR
#71004
b1 *TMR
#71008
b0 *TMR
#72004
b1 *TMR
#72008
b0 *TMR
#73004
b1 *TMR
#73008
b0 *TMR
#74004
b1 *TMR
#74008
b0 *TMR
#75004
b1 *TMR
#75008
b0 *TMR
#76004
b1 *TMR
#76008
b0 *TMR
#77004
b1 *TMR
#77008
b0 *TMR
#78004
b1 *TMR
#78008
b0 *TMR
#79004
b1 *TMR
#79008
b0 *TMR
#80004
b1 *TMR
#80008
b0 *TMR
#81004
b1 *TMR
#81008
b0 *TMR
#82004
b1 *TMR
#82008
b0 *TMR
#83004
b1 *TMR
#83008
b0 *TMR
#84004
b1 *TMR
#84008
b0 *TMR
#85004
b1 *TMR
#85008
b0 *TMR
#86004
b1 *TMR
#86008
b0 *TMR
#87004
b1 *TMR
#87008
b0 *TMR
#88004
b1 *TMR
#88008
b0 *TMR
#89004
b1 *TMR
#89008
b0 *TMR
#90004
b1 *TMR
#90008
b0 *TMR
#91004
b1 *TMR
#91008
b0 *TMR
#92004
b1 *TMR
#92008
b0 *TMR
#93004
b1 *TMR
#93008
b0 *TMR
#94004
b1 *TMR
#94008
b0 *TMR
#95004
b1 *TMR
#95008
b0 *TMR
#96004
b1 *TMR
#96008
b0 *TMR
#97004
b1 *TMR
#97008
b0 *TMR
#98004
b1 *TMR
#98008
b0 *TMR
#99004
b1 *TMR
#99008
b0 *TMR
#100004
b1 *TMR
#100008
b0 *TMR
#101004
b1 *TMR
#101008
b0 *TMR
#102004
b1 *TMR
#102008
b0 *TMR
#103004
b1 *TMR
#103008
b0 *TMR
#104004
b1 *TMR
#104008
b0 *TMR
#105004
b1 *TMR
#105008
b0 *TMR
#106004
b1 *TMR
#106008
b0 *TMR
#107004
b1 *TMR
#107008
b0 *TMR
#108004
b1 *TMR
#108008
b0 *TMR
#109004
b1 *TMR
#109008
b0 *TMR
#110004
b1 *TMR
#110008
b0 *TMR
#111004
b1 *TMR
#111008
b0 *TMR
#112004
b1 *TMR
#112008
b0 *TMR
#113004
b1 *TMR
#113008
b0 *TMR
#114004
b1 *TMR
#114008
b0 *TMR
#115004
b1 *TMR
#115008
b0 *TMR
#116004
b1 *TMR
#116008
b0 *TMR
#117004
b1 *TMR
#117008
b0 *TMR
#118004
b1 *TMR
#118008
b0 *TMR
#119004
b1 *TMR
#119008
b0 *TMR
#120004
b1 *TMR
#120008
b0 *TMR
#121004
b1 *TMR
#121008
b0 *TMR
#122004
b1 *TMR
#122008
b0 *TMR
#123004
b1 *TMR
#123008
b0 *TMR
#124004
b1 *TMR
#124008
b0 *TMR
#125004
b1 *TMR
#125008
b0 *TMR
#126004
b1 *TMR
#126008
b0 *TMR
#127004
b1 *TMR
#127008
b0 *TMR
#128004
b1 *TMR
#128008
b0 *TMR
#129004
b1 *TMR
#129008
b0 *TMR
#130004
b1 *TMR
#130008
b0 *TMR
#131004
b1 *TMR
#131008
b0 *TMR
#132004
b1 *TMR
#132008
b0 *TMR
#133004
b1 *TMR
#133008
b0 *TMR
#134004
b1 *TMR
#134008
b0 *TMR
#135004
b1 *TMR
#135008
b0 *TMR
#136004
b1 *TMR
#136008
b0 *TMR
#137004
b1 *TMR
#137008
b0 *TMR
#138004
b1 *TMR
#138008
b0 *TMR
#139004
b1 *TMR
#139008
b0 *TMR
#140004
b1 *TMR
#140008
b0 *TMR
#141004
b1 *TMR
#141008
b0 *TMR
#142004
b1 *TMR
#142008
b0 *TMR
#143004
b1 *TMR
#143008
b0 *TMR
#144004
b1 *TMR
#144008
b0 *TMR
#145004
b1 *TMR
#145008
b0 *TMR
#146004
b1 *TMR
#146008
b0 *TMR
#147004
b1 *TMR
#147008
b0 *TMR
#148004
b1 *TMR
#148008
b0 *TMR
#149004
b1 *TMR
#149008
b0 *TMR
#150004
b1 *TMR
#150008
b0 *TMR
#151004
b1 *TMR
#151008
b0 *TMR
#152004
b1 *TMR
#152008
b0 *TMR
#153004
b1 *TMR
#153008
b0 *TMR
#154004
b1 *TMR
#154008
b0 *TMR
#155004
b1 *TMR
#155008
b0 *TMR
#156004
b1 *TMR
#156008
b0 *TMR
#157004
b1 *TMR
#157008
b0 *TMR
#158004
b1 *TMR
#158008
b0 *TMR
#159004
b1 *TMR
#159008
b0 *TMR
#160004
b1 *TMR
#160008
b0 *TMR
#161004
b1 *TMR
#161008
b0 *TMR
#162004
b1 *TMR
#162008
b0 *TMR
#163004
b1 *TMR
#163008
b0 *TMR
#164004
b1 *TMR
#164008
b0 *TMR
#165004
b1 *TMR
#165008
b0 *TMR
#166004
b1 *TMR
#166008
b0 *TMR
#167004
b1 *TMR
#167008
b0 *TMR
#168004
b1 *TMR
#168008
b0 *TMR
#169004
b1 *TMR
#169008
b0 *TMR
#170004
b1 *TMR
#170008
b0 *TMR
#171004
b1 *TMR
#171008
b0 *TMR
#172004
b1 *TMR
#172008
b0 *TMR
#173004
b1 *TMR
#173008
b0 *TMR
#174004
b1 *TMR
#174008
b0 *TMR
#175004
b1 *TMR
#175008
b0 *TMR
#176004
b1 *TMR
#176008
b0 *TMR
#177004
b1 *TMR
#177008
b0 *TMR
#178004
b1 *TMR
#178008
b0 *TMR
#179004
b1 *TMR
#179008
b0 *TMR
#180004
b1 *TMR
#180008
b0 *TMR
#181004
b1 *TMR
#181008
b0 *TMR
#182004
b1 *TMR
#182008
b0 *TMR
#183004
b1 *TMR
#183008
b0 *TMR
#184004
b1 *TMR
#184008
b0 *TMR
#185004
b1 *TMR
#185008
b0 *TMR
#186004
b1 *TMR
#186008
b0 *TMR
#187004
b1 *TMR
#187008
b0 *TMR
#188004
b1 *TMR
#188008
b0 *TMR
#189004
b1 *TMR
#189008
b0 *TMR
#190004
b1 *TMR
#190008
b0 *TMR
#191004
b1 *TMR
#191008
b0 *TMR
#192004
b1 *TMR
#192008
b0 *TMR
#193004
b1 *TMR
#193008
b0 *TMR
#194004
b1 *TMR
#194008
b0 *TMR
#195004
b1 *TMR
#195008
b0 *TMR
#196004
b1 *TMR
#196008
b0 *TMR
#197004
b1 *TMR
#197008
b0 *TMR
#198004
b1 *TMR
#198008
b0 *TMR
#199004
b1 *TMR
#199008
b0 *TMR
#200004
b1 *TMR
#200008
b0 *TMR
#201004
b1 *TMR
#201008
b0 *TMR
#202004
b1 *TMR
#202008
b0 *TMR
#203004
b1 *TMR
#203008
b0 *TMR
#204004
b1 *TMR
#204008
b0 *TMR
#205004
b1 *TMR
#205008
b0 *TMR
#206004
b1 *TMR
#206008
b0 *TMR
#207004
b1 *TMR
#207008
b0 *TMR
#208004
b1 *TMR
#208008
b0 *TMR
#209004
b1 *TMR
#209008
b0 *TMR
#210004
b1 *TMR
#210008
b0 *TMR
#211004
b1 *TMR
#211008
b0 *TMR
#212004
b1 *TMR
#212008
b0 *TMR
#213004
b1 *TMR
#213008
b0 *TMR
#214004
b1 *TMR
#214008
b0 *TMR
#215004
b1 *TMR
#215008
b0 *TMR
#216004
b1 *TMR
#216008
b0 *TMR
#217004
b1 *TMR
#217008
b0 *TMR
#218004
b1 *TMR
#218008
b0 *TMR
#219004
b1 *TMR
#219008
b0 *TMR
#220004
b1 *TMR
#220008
b0 *TMR
#221004
b1 *TMR
#221008
b0 *TMR
#222004
b1 *TMR
#222008
b0 *TMR
#223004
b1 *TMR
#223008
b0 *TMR
#224004
b1 *TMR
#224008
b0 *TMR
#225004
b1 *TMR
#225008
b0 *TMR
#226004
b1 *TMR
#226008
b0 *TMR
#227004
b1 *TMR
#227008
b0 *TMR
#228004
b1 *TMR
#228008
b0 *TMR
#229004
b1 *TMR
#229008
b0 *TMR
#230004
b1 *TMR
#230008
b0 *TMR
#231004
b1 *TMR
#231008
b0 *TMR
#232004
b1 *TMR
#232008
b0 *TMR
#233004
b1 *TMR
#233008
b0 *TMR
#234004
b1 *TMR
#234008
b0 *TMR
#235004
b1 *TMR
#235008
b0 *TMR
#236004
b1 *TMR
#236008
b0 *TMR
#237004
b1 *TMR
#237008
b0 *TMR
#238004
b1 *TMR
#238008
b0 *TMR
#239004
b1 *TMR
#239008
b0 *TMR
#240004
b1 *TMR
#240008
b0 *TMR
#241004
b1 *TMR
#241008
b0 *TMR
#242004
b1 *TMR
#242008
b0 *TMR
#243004
b1 *TMR
#243008
b0 *TMR
#244004
b1 *TMR
#244008
b0 *TMR
#245004
b1 *TMR
#245008
b0 *TMR
#246004
b1 *TMR
#246008
b0 *TMR
#247004
b1 *TMR
#247008
b0 *TMR
#248004
b1 *TMR
#248008
b0 *TMR
#249004
b1 *TMR
#249008
b0 *TMR
#250004
b1 *TMR
#250008
b0 *TMR
#251004
b1 *TMR
#251008
b0 *TMR
#252004
b1 *TMR
#252008
b0 *TMR
#253004
b1 *TMR
#253008
b0 *TMR
#254004
b1 *TMR
#254008
b0 *TMR
#255004
b1 *TMR
#255008
b0 *TMR
#256004
b1 *TMR
#256008
b0 *TMR
#257004
b1 *TMR
#257008
b0 *TMR
#258004
b1 *TMR
#258008
b0 *TMR
#259004
b1 *TMR
#259008
b0 *TMR
#260004
b1 *TMR
#260008
b0 *TMR
#261004
b1 *TMR
#261008
b0 *TMR
#262004
b1 *TMR
#262008
b0 *TMR
#263004
b1 *TMR
#263008
b0 *TMR
#264004
b1 *TMR
#264008
b0 *TMR
#265004
b1 *TMR
#265008
b0 *TMR
#266004
b1 *TMR
#266008
b0 *TMR
#267004
b1 *TMR
#267008
b0 *TMR
#268004
b1 *TMR
#268008
b0 *TMR
#269004
b1 *TMR
#269008
b0 *TMR
#270004
b1 *TMR
#270008
b0 *TMR
#271004
b1 *TMR
#271008
b0 *TMR
#272004
b1 *TMR
#272008
b0 *TMR
#273004
b1 *TMR
#273008
b0 *TMR
#274004
b1 *TMR
#274008
b0 *TMR
#275004
b1 *TMR
#275008
b0 *TMR
#276004
b1 *TMR
#276008
b0 *TMR
#277004
b1 *TMR
#277008
b0 *TMR
#278004
b1 *TMR
#278008
b0 *TMR
#279004
b1 *TMR
#279008
b0 *TMR
#280004
b1 *TMR
#280008
b0 *TMR
#281004
b1 *TMR
#281008
b0 *TMR
#282004
b1 *TMR
#282008
b0 *TMR
#283004
b1 *TMR
#283008
b0 *TMR
#284004
b1 *TMR
#284008
b0 *TMR
#285004
b1 *TMR
#285008
b0 *TMR
#286004
b1 *TMR
#286008
b0 *TMR
#287004
b1 *TMR
#287008
b0 *TMR
#288004
b1 *TMR
#288008
b0 *TMR
#289004
b1 *TMR
#289008
b0 *TMR
#290004
b1 *TMR
#290008
b0 *TMR
#291004
b1 *TMR
#291008
b0 *TMR
#292004
b1 *TMR
#292008
b0 *TMR
#293004
b1 *TMR
#293008
b0 *TMR
#294004
b1 *TMR
#294008
b0 *TMR
#295004
b1 *TMR
#295008
b0 *TMR
#296004
b1 *TMR
#296008
b0 *TMR
#297004
b1 *TMR
#297008
b0 *TMR
#298004
b1 *TMR
#298008
b0 *TMR
#299004
b1 *TMR
#299008
b0 *TMR
#300004
b1 *TMR
#300008
b0 *TMR
#301004
b1 *TMR
#301008
b0 *TMR
#302004
b1 *TMR
#302008
b0 *TMR
#303004
b1 *TMR
#303008
b0 *TMR
#304004
b1 *TMR
#304008
b0 *TMR
#305004
b1 *TMR
#305008
b0 *TMR
#306004
b1 *TMR
#306008
b0 *TMR
#307004
b1 *TMR
#307008
b0 *TMR
#308004
b1 *TMR
#308008
b0 *TMR
#309004
b1 *TMR
#309008
b0 *TMR
#310004
b1 *TMR
#310008
b0 *TMR
#311004
b1 *TMR
#311008
b0 *TMR
#312004
b1 *TMR
#312008
b0 *TMR
#313004
b1 *TMR
#313008
b0 *TMR
#314004
b1 *TMR
#314008
b0 *TMR
#315004
b1 *TMR
#315008
b0 *TMR
#316004
b1 *TMR
#316008
b0 *TMR
#317004
b1 *TMR
#317008
b0 *TMR
#318004
b1 *TMR
#318008
b0 *TMR
#319004
b1 *TMR
#319008
b0 *TMR
#320004
b1 *TMR
#320008
b0 *TMR
#321004
b1 *TMR
#321008
b0 *TMR
#322004
b1 *TMR
#322008
b0 *TMR
#323004
b1 *TMR
#323008
b0 *TMR
#324004
b1 *TMR
#324008
b0 *TMR
#325004
b1 *TMR
#325008
b0 *TMR
#326004
b1 *TMR
#326008
b0 *TMR
#327004
b1 *TMR
#327008
b0 *TMR
#328004
b1 *TMR
#328008
b0 *TMR
#329004
b1 *TMR
#329008
b0 *TMR
#330004
b1 *TMR
#330008
b0 *TMR
#331004
b1 *TMR
#331008
b0 *TMR
#332004
b1 *TMR
#332008
b0 *TMR
#333004
b1 *TMR
#333008
b0 *TMR
#334004
b1 *TMR
#334008
b0 *TMR
#335004
b1 *TMR
#335008
b0 *TMR
#336004
b1 *TMR
#336008
b0 *TMR
#337004
b1 *TMR
#337008
b0 *TMR
#338004
b1 *TMR
#338008
b0 *TMR
#339004
b1 *TMR
#339008
b0 *TMR
#340004
b1 *TMR
#340008
b0 *TMR
#341004
b1 *TMR
#341008
b0 *TMR
#342004
b1 *TMR
#342008
b0 *TMR
#343004
b1 *TMR
#343008
b0 *TMR
#344004
b1 *TMR
#344008
b0 *TMR
#345004
b1 *TMR
#345008
b0 *TMR
#346004
b1 *TMR
#346008
b0 *TMR
#347004
b1 *TMR
#347008
b0 *TMR
#348004
b1 *TMR
#348008
b0 *TMR
#349004
b1 *TMR
#349008
b0 *TMR
#350004
b1 *TMR
#350008
b0 *TMR
#351004
b1 *TMR
#351008
b0 *TMR
#352004
b1 *TMR
#352008
b0 *TMR
#353004
b1 *TMR
#353008
b0 *TMR
#354004
b1 *TMR
#354008
b0 *TMR
#355004
b1 *TMR
#355008
b0 *TMR
#356004
b1 *TMR
#356008
b0 *TMR
#357004
b1 *TMR
#357008
b0 *TMR
#358004
b1 *TMR
#358008
b0 *TMR
#359004
b1 *TMR
#359008
b0 *TMR
#360004
b1 *TMR
#360008
b0 *TMR
#361004
b1 *TMR
#361008
b0 *TMR
#362004
b1 *TMR
#362008
b0 *TMR
#363004
b1 *TMR
#363008
b0 *TMR
#364004
b1 *TMR
#364008
b0 *TMR
#365004
b1 *TMR
#365008
b0 *TMR
#366004
b1 *TMR
#366008
b0 *TMR
#367004
b1 *TMR
#367008
b0 *TMR
#368004
b1 *TMR
#368008
b0 *TMR
#369004
b1 *TMR
#369008
b0 *TMR
#370004
b1 *TMR
#370008
b0 *TMR
#371004
b1 *TMR
#371008
b0 *TMR
#372004
b1 *TMR
#372008
b0 *TMR
#373004
b1 *TMR
#373008
b0 *TMR
#374004
b1 *TMR
#374008
b0 *TMR
#375004
b1 *TMR
#375008
b0 *TMR
#376004
b1 *TMR
#376008
b0 *TMR
#377004
b1 *TMR
#377008
b0 *TMR
#378004
b1 *TMR
#378008
b0 *TMR
#379004
b1 *TMR
#379008
b0 *TMR
#380004
b1 *TMR
#380008
b0 *TMR
#381004
b1 *TMR
#381008
b0 *TMR
#382004
b1 *TMR
#382008
b0 *TMR
#383004
b1 *TMR
#383008
b0 *TMR
#384004
b1 *TMR
#384008
b0 *TMR
#385004
b1 *TMR
#385008
b0 *TMR
#386004
b1 *TMR
#386008
b0 *TMR
#387004
b1 *TMR
#387008
b0 *TMR
#388004
b1 *TMR
#388008
b0 *TMR
#389004
b1 *TMR
#389008
b0 *TMR
#390004
b1 *TMR
#390008
b0 *TMR
#391004
b1 *TMR
#391008
b0 *TMR
#392004
b1 *TMR
#392008
b0 *TMR
#393004
b1 *TMR
#393008
b0 *TMR
#394004
b1 *TMR
#394008
b0 *TMR
#395004
b1 *TMR
#395008
b0 *TMR
#396004
b1 *TMR
#396008
b0 *TMR
#397004
b1 *TMR
#397008
b0 *TMR
#398004
b1 *TMR
#398008
b0 *TMR
#399004
b1 *TMR
#399008
b0 *TMR
#400004
b1 *TMR
#400008
b0 *TMR
#401004
b1 *TMR
#401008
b0 *TMR
#402004
b1 *TMR
#402008
b0 *TMR
#403004
b1 *TMR
#403008
b0 *TMR
#404004
b1 *TMR
#404008
b0 *TMR
#405004
b1 *TMR
#405008
b0 *TMR
#406004
b1 *TMR
#406008
b0 *TMR
#407004
b1 *TMR
#407008
b0 *TMR
#408004
b1 *TMR
#408008
b0 *TMR
#409004
b1 *TMR
#409008
b0 *TMR
#410004
b1 *TMR
#410008
b0 *TMR
#411004
b1 *TMR
#411008
b0 *TMR
#412004
b1 *TMR
#412008
b0 *TMR
#413004
b1 *TMR
#413008
b0 *TMR
#414004
b1 *TMR
#414008
b0 *TMR
#415004
b1 *TMR
#415008
b0 *TMR
#416004
b1 *TMR
#416008
b0 *TMR
#417004
b1 *TMR
#417008
b0 *TMR
#418004
b1 *TMR
#418008
b0 *TMR
#419004
b1 *TMR
#419008
b0 *TMR
#420004
b1 *TMR
#420008
b0 *TMR
#421004
b1 *TMR
#421008
b0 *TMR
#422004
b1 *TMR
#422008
b0 *TMR
#423004
b1 *TMR
#423008
b0 *TMR
#424004
b1 *TMR
#424008
b0 *TMR
#425004
b1 *TMR
#425008
b0 *TMR
#426004
b1 *TMR
#426008
b0 *TMR
#427004
b1 *TMR
#427008
b0 *TMR
#428004
b1 *TMR
#428008
b0 *TMR
#429004
b1 *TMR
#429008
b0 *TMR
#430004
b1 *TMR
#430008
b0 *TMR
#431004
b1 *TMR
#431008
b0 *TMR
#432004
b1 *TMR
#432008
b0 *TMR
#433004
b1 *TMR
#433008
b0 *TMR
#434004
b1 *TMR
#434008
b0 *TMR
#435004
b1 *TMR
#435008
b0 *TMR
#436004
b1 *TMR
#436008
b0 *TMR
#437004
b1 *TMR
#437008
b0 *TMR
#438004
b1 *TMR
#438008
b0 *TMR
#439004
b1 *TMR
#439008
b0 *TMR
#440004
b1 *TMR
#440008
b0 *TMR
#441004
b1 *TMR
#441008
b0 *TMR
#442004
b1 *TMR
#442008
b0 *TMR
#443004
b1 *TMR
#443008
b0 *TMR
#444004
b1 *TMR
#444008
b0 *TMR
#445004
b1 *TMR
#445008
b0 *TMR
#446004
b1 *TMR
#446008
b0 *TMR
#447004
b1 *TMR
#447008
b0 *TMR
#448004
b1 *TMR
#448008
b0 *TMR
#449004
b1 *TMR
#449008
b0 *TMR
#450004
b1 *TMR
#450008
b0 *TMR
#451004
b1 *TMR
#451008
b0 *TMR
#452004
b1 *TMR
#452008
b0 *TMR
#453004
b1 *TMR
#453008
b0 *TMR
#454004
b1 *TMR
#454008
b0 *TMR
#455004
b1 *TMR
#455008
b0 *TMR
#456004
b1 *TMR
#456008
b0 *TMR
#457004
b1 *TMR
#457008
b0 *TMR
#458004
b1 *TMR
#458008
b0 *TMR
#459004
b1 *TMR
#459008
b0 *TMR
#460004
b1 *TMR
#460008
b0 *TMR
#461004
b1 *TMR
#461008
b0 *TMR
#462004
b1 *TMR
#462008
b0 *TMR
#463004
b1 *TMR
#463008
b0 *TMR
#464004
b1 *TMR
#464008
b0 *TMR
#465004
b1 *TMR
#465008
b0 *TMR
#466004
b1 *TMR
#466008
b0 *TMR
#467004
b1 *TMR
#467008
b0 *TMR
#468004
b1 *TMR
#468008
b0 *TMR
#469004
b1 *TMR
#469008
b0 *TMR
#470004
b1 *TMR
#470008
b0 *TMR
#471004
b1 *TMR
#471008
b0 *TMR
#472004
b1 *TMR
#472008
b0 *TMR
#473004
b1 *TMR
#473008
b0 *TMR
#474004
b1 *TMR
#474008
b0 *TMR
#475004
b1 *TMR
#475008
b0 *TMR
#476004
b1 *TMR
#476008
b0 *TMR
#477004
b1 *TMR
#477008
b0 *TMR
#478004
b1 *TMR
#478008
b0 *TMR
#479004
b1 *TMR
#479008
b0 *TMR
#480004
b1 *TMR
#480008
b0 *TMR
#481004
b1 *TMR
#481008
b0 *TMR
#482004
b1 *TMR
#482008
b0 *TMR
#483004
b1 *TMR
#483008
b0 *TMR
#484004
b1 *TMR
#484008
b0 *TMR
#485004
b1 *TMR
#485008
b0 *TMR
#486004
b1 *TMR
#486008
b0 *TMR
#487004
b1 *TMR
#487008
b0 *TMR
#488004
b1 *TMR
#488008
b0 *TMR
#489004
b1 *TMR
#489008
b0 *TMR
#490004
b1 *TMR
#490008
b0 *TMR
#491004
b1 *TMR
#491008
b0 *TMR
#492004
b1 *TMR
#492008
b0 *TMR
#493004
b1 *TMR
#493008
b0 *TMR
#494004
b1 *TMR
#494008
b0 *TMR
#495004
b1 *TMR
#495008
b0 *TMR
#496004
b1 *TMR
#496008
b0 *TMR
#497004
b1 *TMR
#497008
b0 *TMR
#498004
b1 *TMR
#498008
b0 *TMR
#499004
b1 *TMR
#499008
b0 *TMR
#500004
b1 *TMR
#500008
b0 *TMR
#501004
b1 *TMR
#501008
b0 *TMR
#502004
b1 *TMR
#502008
b0 *TMR
#503004
b1 *TMR
#503008
b0 *TMR
#504004
b1 *TMR
#504008
b0 *TMR
#505004
b1 *TMR
#505008
b0 *TMR
#506004
b1 *TMR
#506008
b0 *TMR
#507004
b1 *TMR
#507008
b0 *TMR
#508004
b1 *TMR
#508008
b0 *TMR
#509004
b1 *TMR
#509008
b0 *TMR
#510004
b1 *TMR
#510008
b0 *TMR
#511004
b1 *TMR
#511008
b0 *TMR
#512004
b1 *TMR
#512008
b0 *TMR
#513004
b1 *TMR
#513008
b0 *TMR
#514004
b1 *TMR
#514008
b0 *TMR
#515004
b1 *TMR
#515008
b0 *TMR
#516004
b1 *TMR
#516008
b0 *TMR
#517004
b1 *TMR
#517008
b0 *TMR
#518004
b1 *TMR
#518008
b0 *TMR
#519004
b1 *TMR
#519008
b0 *TMR
#520004
b1 *TMR
#520008
b0 *TMR
#521004
b1 *TMR
#521008
b0 *TMR
#522004
b1 *TMR
#522008
b0 *TMR
#523004
b1 *TMR
#523008
b0 *TMR
#524004
b1 *TMR
#524008
b0 *TMR
#525004
b1 *TMR
#525008
b0 *TMR
#526004
b1 *TMR
#526008
b0 *TMR
#527004
b1 *TMR
#527008
b0 *TMR
#528004
b1 *TMR
#528008
b0 *TMR
#529004
b1 *TMR
#529008
b0 *TMR
#530004
b1 *TMR
#530008
b0 *TMR
#531004
b1 *TMR
#531008
b0 *TMR
#532004
b1 *TMR
#532008
b0 *TMR
#533004
b1 *TMR
#533008
b0 *TMR
#534004
b1 *TMR
#534008
b0 *TMR
#535004
b1 *TMR
#535008
b0 *TMR
#536004
b1 *TMR
#536008
b0 *TMR
#537004
b1 *TMR
#537008
b0 *TMR
#538004
b1 *TMR
#538008
b0 *TMR
#539004
b1 *TMR
#539008
b0 *TMR
#540004
b1 *TMR
#540008
b0 *TMR
#541004
b1 *TMR
#541008
b0 *TMR
#542004
b1 *TMR
#542008
b0 *TMR
#543004
b1 *TMR
#543008
b0 *TMR
#544004
b1 *TMR
#544008
b0 *TMR
#545004
b1 *TMR
#545008
b0 *TMR
#546004
b1 *TMR
#546008
b0 *TMR
#547004
b1 *TMR
#547008
b0 *TMR
#548004
b1 *TMR
#548008
b0 *TMR
#549004
b1 *TMR
#549008
b0 *TMR
#550004
b1 *TMR
#550008
b0 *TMR
#551004
b1 *TMR
#551008
b0 *TMR
#552004
b1 *TMR
#552008
b0 *TMR
#553004
b1 *TMR
#553008
b0 *TMR
#554004
b1 *TMR
#554008
b0 *TMR
#555004
b1 *TMR
#555008
b0 *TMR
#556004
b1 *TMR
#556008
b0 *TMR
#557004
b1 *TMR
#557008
b0 *TMR
#558004
b1 *TMR
#558008
b0 *TMR
#559004
b1 *TMR
#559008
b0 *TMR
#560004
b1 *TMR
#560008
b0 *TMR
#561004
b1 *TMR
#561008
b0 *TMR
#562004
b1 *TMR
#562008
b0 *TMR
#563004
b1 *TMR
#563008
b0 *TMR
#564004
b1 *TMR
#564008
b0 *TMR
#565004
b1 *TMR
#565008
b0 *TMR
#566004
b1 *TMR
#566008
b0 *TMR
#567004
b1 *TMR
#567008
b0 *TMR
#568004
b1 *TMR
#568008
b0 *TMR
#569004
b1 *TMR
#569008
b0 *TMR
#570004
b1 *TMR
#570008
b0 *TMR
#571004
b1 *TMR
#571008
b0 *TMR
#572004
b1 *TMR
#572008
b0 *TMR
#573004
b1 *TMR
#573008
b0 *TMR
#574004
b1 *TMR
#574008
b0 *TMR
#575004
b1 *TMR
#575008
b0 *TMR
#576004
b1 *TMR
#576008
b0 *TMR
#577004
b1 *TMR
#577008
b0 *TMR
#578004
b1 *TMR
#578008
b0 *TMR
#579004
b1 *TMR
#579008
b0 *TMR
#580004
b1 *TMR
#580008
b0 *TMR
#581004
b1 *TMR
#581008
b0 *TMR
#582004
b1 *TMR
#582008
b0 *TMR
#583004
b1 *TMR
#583008
b0 *TMR
#584004
b1 *TMR
#584008
b0 *TMR
#585004
b1 *TMR
#585008
b0 *TMR
#586004
b1 *TMR
#586008
b0 *TMR
#587004
b1 *TMR
#587008
b0 *TMR
#588004
b1 *TMR
#588008
b0 *TMR
#589004
b1 *TMR
#589008
b0 *TMR
#590004
b1 *TMR
#590008
b0 *TMR
#591004
b1 *TMR
#591008
b0 *TMR
#592004
b1 *TMR
#592008
b0 *TMR
#593004
b1 *TMR
#593008
b0 *TMR
#594004
b1 *TMR
#594008
b0 *TMR
#595004
b1 *TMR
#595008
b0 *TMR
#596004
b1 *TMR
#596008
b0 *TMR
#597004
b1 *TMR
#597008
b0 *TMR
#598004
b1 *TMR
#598008
b0 *TMR
#599004
b1 *TMR
#599008
b0 *TMR
#600004
b1 *TMR
#600008
b0 *TMR
#601004
b1 *TMR
#601008
b0 *TMR
#602004
b1 *TMR
#602008
b0 *TMR
#603004
b1 *TMR
#603008
b0 *TMR
